#
## Alias OBJ Material File
# Exported from SketchUp, (c) 2000-2012 Trimble Navigation Limited

newmtl M_55920289_c
Ka 0.000000 0.000000 0.000000
Kd 0.603922 0.384314 0.129412
Ks 0.330000 0.330000 0.330000
map_Kd Board/M_55920289_c.png

newmtl M_15B2233E_c
Ka 0.000000 0.000000 0.000000
Kd 0.666667 0.447059 0.164706
Ks 0.330000 0.330000 0.330000
map_Kd Board/M_15B2233E_c.png

newmtl M_1645101_c
Ka 0.000000 0.000000 0.000000
Kd 0.247059 0.164706 0.058824
Ks 0.330000 0.330000 0.330000
map_Kd Board/M_1645101_c.png

newmtl M_44CF1C77_c
Ka 0.000000 0.000000 0.000000
Kd 0.219608 0.137255 0.035294
Ks 0.330000 0.330000 0.330000
map_Kd Board/M_44CF1C77_c.png

newmtl M_59CDEAB1_c
Ka 0.000000 0.000000 0.000000
Kd 0.231373 0.152941 0.047059
Ks 0.330000 0.330000 0.330000
map_Kd Board/M_59CDEAB1_c.png

newmtl M_57EFE40C_c
Ka 0.000000 0.000000 0.000000
Kd 0.545098 0.250980 0.058824
Ks 0.330000 0.330000 0.330000
map_Kd Board/M_57EFE40C_c.png

newmtl M_6250E2E0_c
Ka 0.000000 0.000000 0.000000
Kd 0.301961 0.109804 0.003922
Ks 0.330000 0.330000 0.330000
map_Kd Board/M_6250E2E0_c.png

newmtl Material2
Ka 0.000000 0.000000 0.000000
Kd 0.223529 0.145098 0.043137
Ks 0.330000 0.330000 0.330000
map_Kd Board/Material2.png

newmtl M_6942C3B5_c
Ka 0.000000 0.000000 0.000000
Kd 0.584314 0.368627 0.121569
Ks 0.330000 0.330000 0.330000
map_Kd Board/M_6942C3B5_c.png

newmtl M_10643060_c
Ka 0.000000 0.000000 0.000000
Kd 0.227451 0.149020 0.047059
Ks 0.330000 0.330000 0.330000
map_Kd Board/M_10643060_c.png

newmtl Material1
Ka 0.000000 0.000000 0.000000
Kd 0.596078 0.376471 0.125490
Ks 0.330000 0.330000 0.330000
map_Kd Board/Material1.png

newmtl M_21B1740_c
Ka 0.000000 0.000000 0.000000
Kd 0.219608 0.141176 0.043137
Ks 0.330000 0.330000 0.330000
map_Kd Board/M_21B1740_c.png

newmtl M_4D95B17A_c
Ka 0.000000 0.000000 0.000000
Kd 0.615686 0.392157 0.133333
Ks 0.330000 0.330000 0.330000
map_Kd Board/M_4D95B17A_c.png

newmtl M_1A25154A_c
Ka 0.000000 0.000000 0.000000
Kd 0.219608 0.145098 0.043137
Ks 0.330000 0.330000 0.330000
map_Kd Board/M_1A25154A_c.png

newmtl M_414069B3_c
Ka 0.000000 0.000000 0.000000
Kd 0.623529 0.403922 0.137255
Ks 0.330000 0.330000 0.330000
map_Kd Board/M_414069B3_c.png

newmtl M_79F53397_c
Ka 0.000000 0.000000 0.000000
Kd 0.223529 0.149020 0.043137
Ks 0.330000 0.330000 0.330000
map_Kd Board/M_79F53397_c.png

newmtl M_797E46B6_c
Ka 0.000000 0.000000 0.000000
Kd 0.607843 0.388235 0.133333
Ks 0.330000 0.330000 0.330000
map_Kd Board/M_797E46B6_c.png

newmtl M_3B734443_c
Ka 0.000000 0.000000 0.000000
Kd 0.619608 0.400000 0.137255
Ks 0.330000 0.330000 0.330000
map_Kd Board/M_3B734443_c.png

newmtl M_25C0F116_c
Ka 0.000000 0.000000 0.000000
Kd 0.231373 0.152941 0.047059
Ks 0.330000 0.330000 0.330000
map_Kd Board/M_25C0F116_c.png

newmtl FFD784A_c
Ka 0.000000 0.000000 0.000000
Kd 0.600000 0.384314 0.129412
Ks 0.330000 0.330000 0.330000
map_Kd Board/FFD784A_c.png

newmtl M_6A6BF27C_c
Ka 0.000000 0.000000 0.000000
Kd 0.215686 0.141176 0.039216
Ks 0.330000 0.330000 0.330000
map_Kd Board/M_6A6BF27C_c.png

newmtl M_446A30ED_c
Ka 0.000000 0.000000 0.000000
Kd 0.000000 0.180392 0.000000
Ks 0.330000 0.330000 0.330000
map_Kd Board/M_446A30ED_c.png

